\relax 
\providecommand\hyper@newdestlabel[2]{}
\@writefile{toc}{\defcounter {refsection}{0}\relax }\@writefile{toc}{\contentsline {chapter}{\numberline {2}Technische Grundlagen}{4}{chapter.2}}
\@writefile{lof}{\defcounter {refsection}{0}\relax }\@writefile{lof}{\addvspace {10\p@ }}
\@writefile{lot}{\defcounter {refsection}{0}\relax }\@writefile{lot}{\addvspace {10\p@ }}
\@writefile{lol}{\defcounter {refsection}{0}\relax }\@writefile{lol}{\addvspace {10\p@ }}
\newlabel{cha:tech}{{2}{4}{Technische Grundlagen}{chapter.2}{}}
\@writefile{toc}{\defcounter {refsection}{0}\relax }\@writefile{toc}{\contentsline {section}{\numberline {2.1}Webtechnologien}{4}{section.2.1}}
\newlabel{sec:Webtechnologien}{{2.1}{4}{Webtechnologien}{section.2.1}{}}
\@writefile{toc}{\defcounter {refsection}{0}\relax }\@writefile{toc}{\contentsline {subsection}{\numberline {2.1.1}Uniform Resource Locator}{4}{subsection.2.1.1}}
\newlabel{subsec:URL}{{2.1.1}{4}{Uniform Resource Locator}{subsection.2.1.1}{}}
\undonewlabel{acro:URL}
\newlabel{acro:URL}{{2.1.1}{4}{Uniform Resource Locator}{section*.7}{}}
\acronymused{URL}
\@writefile{lof}{\defcounter {refsection}{0}\relax }\@writefile{lof}{\contentsline {figure}{\numberline {2.1}{\ignorespaces Aufbau einer URL}}{4}{figure.2.1}}
\newlabel{fig:url}{{2.1}{4}{Aufbau einer URL}{figure.2.1}{}}
\acronymused{URL}
\undonewlabel{acro:FQDN}
\newlabel{acro:FQDN}{{2.1.1}{4}{Uniform Resource Locator}{section*.8}{}}
\acronymused{FQDN}
\@writefile{toc}{\defcounter {refsection}{0}\relax }\@writefile{toc}{\contentsline {subsection}{\numberline {2.1.2}Hypertext Transfer Protocol}{5}{subsection.2.1.2}}
\newlabel{sec:http}{{2.1.2}{5}{Hypertext Transfer Protocol}{subsection.2.1.2}{}}
\undonewlabel{acro:http}
\newlabel{acro:http}{{2.1.2}{5}{Hypertext Transfer Protocol}{section*.9}{}}
\acronymused{http}
\undonewlabel{acro:https}
\newlabel{acro:https}{{2.1.2}{5}{Hypertext Transfer Protocol}{section*.10}{}}
\acronymused{https}
\@writefile{toc}{\defcounter {refsection}{0}\relax }\@writefile{toc}{\contentsline {subsection}{\numberline {2.1.3}Hypertext Markup Language}{5}{subsection.2.1.3}}
\newlabel{sec:HTML}{{2.1.3}{5}{Hypertext Markup Language}{subsection.2.1.3}{}}
\undonewlabel{acro:HTML}
\newlabel{acro:HTML}{{2.1.3}{5}{Hypertext Markup Language}{section*.11}{}}
\acronymused{HTML}
\undonewlabel{acro:W3C}
\newlabel{acro:W3C}{{2.1.3}{5}{Hypertext Markup Language}{section*.12}{}}
\acronymused{W3C}
\undonewlabel{acro:CSS}
\newlabel{acro:CSS}{{2.1.3}{6}{Hypertext Markup Language}{section*.13}{}}
\acronymused{CSS}
\acronymused{CSS}
\acronymused{CSS}
\newlabel{lst:table}{{2.1}{6}{Beispiel HTML-Dokument mit Tabelle und eingebundener CSS-Datei}{lstlisting.2.1}{}}
\@writefile{lol}{\defcounter {refsection}{0}\relax }\@writefile{lol}{\contentsline {lstlisting}{\numberline {2.1}Beispiel HTML-Dokument mit Tabelle und eingebundener CSS-Datei}{6}{lstlisting.2.1}}
\@writefile{toc}{\defcounter {refsection}{0}\relax }\@writefile{toc}{\contentsline {section}{\numberline {2.2}JavaScript}{7}{section.2.2}}
\newlabel{sec:JavaScript}{{2.2}{7}{JavaScript}{section.2.2}{}}
\acronymused{HTML}
\acronymused{HTML}
\undonewlabel{acro:DOM}
\newlabel{acro:DOM}{{2.2}{7}{JavaScript}{section*.14}{}}
\acronymused{DOM}
\acronymused{DOM}
\@writefile{toc}{\defcounter {refsection}{0}\relax }\@writefile{toc}{\contentsline {subsection}{\numberline {2.2.1}Funktionen}{8}{subsection.2.2.1}}
\newlabel{subsec:func}{{2.2.1}{8}{Funktionen}{subsection.2.2.1}{}}
\@writefile{toc}{\defcounter {refsection}{0}\relax }\@writefile{toc}{\contentsline {subsection}{\numberline {2.2.2}Objekte und Prototypen}{8}{subsection.2.2.2}}
\newlabel{subsec:proto}{{2.2.2}{8}{Objekte und Prototypen}{subsection.2.2.2}{}}
\@writefile{toc}{\defcounter {refsection}{0}\relax }\@writefile{toc}{\contentsline {subsection}{\numberline {2.2.3}Ereignis-gesteuerte-Programmierung}{8}{subsection.2.2.3}}
\newlabel{subsubsec:cb}{{2.2.3}{8}{Ereignis-gesteuerte-Programmierung}{subsection.2.2.3}{}}
\acronymused{AJAX}
\@writefile{toc}{\defcounter {refsection}{0}\relax }\@writefile{toc}{\contentsline {subsection}{\numberline {2.2.4}\acl {AJAX}}{9}{subsection.2.2.4}}
\newlabel{subsec:ajax}{{2.2.4}{9}{\acl {AJAX}}{subsection.2.2.4}{}}
\undonewlabel{acro:AJAX}
\newlabel{acro:AJAX}{{2.2.4}{9}{\acl {AJAX}}{section*.15}{}}
\acronymused{AJAX}
\undonewlabel{acro:XHR}
\newlabel{acro:XHR}{{2.2.4}{9}{\acl {AJAX}}{section*.16}{}}
\acronymused{XHR}
\@writefile{toc}{\defcounter {refsection}{0}\relax }\@writefile{toc}{\contentsline {subsection}{\numberline {2.2.5}Dynamische Typisierung}{9}{subsection.2.2.5}}
\newlabel{subsec:cb}{{2.2.5}{9}{Dynamische Typisierung}{subsection.2.2.5}{}}
\newlabel{lst:dyntyp}{{2.2}{9}{Beispiel dynamische Typisierung}{lstlisting.2.2}{}}
\@writefile{lol}{\defcounter {refsection}{0}\relax }\@writefile{lol}{\contentsline {lstlisting}{\numberline {2.2}Beispiel dynamische Typisierung}{9}{lstlisting.2.2}}
\@writefile{toc}{\defcounter {refsection}{0}\relax }\@writefile{toc}{\contentsline {section}{\numberline {2.3}Chrome Erweiterungen}{9}{section.2.3}}
\newlabel{sec:CRX}{{2.3}{9}{Chrome Erweiterungen}{section.2.3}{}}
\@writefile{toc}{\defcounter {refsection}{0}\relax }\@writefile{toc}{\contentsline {subsection}{\numberline {2.3.1}Manifest}{10}{subsection.2.3.1}}
\newlabel{subsec:Manifest}{{2.3.1}{10}{Manifest}{subsection.2.3.1}{}}
\undonewlabel{acro:JSON}
\newlabel{acro:JSON}{{2.3.1}{10}{Manifest}{section*.17}{}}
\acronymused{JSON}
\@writefile{toc}{\defcounter {refsection}{0}\relax }\@writefile{toc}{\contentsline {subsection}{\numberline {2.3.2}Background Script/Page}{10}{subsection.2.3.2}}
\newlabel{subsec:bgs}{{2.3.2}{10}{Background Script/Page}{subsection.2.3.2}{}}
\@writefile{toc}{\defcounter {refsection}{0}\relax }\@writefile{toc}{\contentsline {subsection}{\numberline {2.3.3}Content Scripts}{11}{subsection.2.3.3}}
\newlabel{subsec:c_s}{{2.3.3}{11}{Content Scripts}{subsection.2.3.3}{}}
\@writefile{toc}{\defcounter {refsection}{0}\relax }\@writefile{toc}{\contentsline {subsection}{\numberline {2.3.4}Devtools Pages}{11}{subsection.2.3.4}}
\newlabel{subsec:dev}{{2.3.4}{11}{Devtools Pages}{subsection.2.3.4}{}}
\@writefile{toc}{\defcounter {refsection}{0}\relax }\@writefile{toc}{\contentsline {subsection}{\numberline {2.3.5}Browser Actions und Options Page}{11}{subsection.2.3.5}}
\newlabel{subsec:bao}{{2.3.5}{11}{Browser Actions und Options Page}{subsection.2.3.5}{}}
\@writefile{lof}{\defcounter {refsection}{0}\relax }\@writefile{lof}{\contentsline {figure}{\numberline {2.2}{\ignorespaces \IeC {\"U}bersicht Chrome Erweiterungsarchitektur}}{12}{figure.2.2}}
\newlabel{fig:exarcc}{{2.2}{12}{Übersicht Chrome Erweiterungsarchitektur}{figure.2.2}{}}
\@setckpt{Inhalt/Theorie}{
\setcounter{page}{13}
\setcounter{equation}{0}
\setcounter{enumi}{3}
\setcounter{enumii}{0}
\setcounter{enumiii}{0}
\setcounter{enumiv}{0}
\setcounter{footnote}{0}
\setcounter{mpfootnote}{0}
\setcounter{part}{0}
\setcounter{chapter}{2}
\setcounter{section}{3}
\setcounter{subsection}{5}
\setcounter{subsubsection}{0}
\setcounter{paragraph}{0}
\setcounter{subparagraph}{0}
\setcounter{figure}{2}
\setcounter{table}{0}
\setcounter{lstnumber}{8}
\setcounter{AM@survey}{0}
\setcounter{Item}{3}
\setcounter{Hfootnote}{0}
\setcounter{bookmark@seq@number}{26}
\setcounter{tabx@nest}{0}
\setcounter{listtotal}{0}
\setcounter{listcount}{0}
\setcounter{liststart}{0}
\setcounter{liststop}{0}
\setcounter{citecount}{0}
\setcounter{citetotal}{0}
\setcounter{multicitecount}{0}
\setcounter{multicitetotal}{0}
\setcounter{instcount}{22}
\setcounter{maxnames}{3}
\setcounter{minnames}{1}
\setcounter{maxitems}{3}
\setcounter{minitems}{1}
\setcounter{citecounter}{0}
\setcounter{savedcitecounter}{0}
\setcounter{uniquelist}{0}
\setcounter{uniquename}{0}
\setcounter{refsection}{0}
\setcounter{refsegment}{0}
\setcounter{maxextratitle}{0}
\setcounter{maxextratitleyear}{0}
\setcounter{maxextrayear}{0}
\setcounter{maxextraalpha}{7}
\setcounter{abbrvpenalty}{50}
\setcounter{highnamepenalty}{50}
\setcounter{lownamepenalty}{25}
\setcounter{maxparens}{3}
\setcounter{parenlevel}{0}
\setcounter{mincomprange}{10}
\setcounter{maxcomprange}{100000}
\setcounter{mincompwidth}{1}
\setcounter{afterword}{0}
\setcounter{savedafterword}{0}
\setcounter{annotator}{0}
\setcounter{savedannotator}{0}
\setcounter{author}{0}
\setcounter{savedauthor}{0}
\setcounter{bookauthor}{0}
\setcounter{savedbookauthor}{0}
\setcounter{commentator}{0}
\setcounter{savedcommentator}{0}
\setcounter{editor}{0}
\setcounter{savededitor}{0}
\setcounter{editora}{0}
\setcounter{savededitora}{0}
\setcounter{editorb}{0}
\setcounter{savededitorb}{0}
\setcounter{editorc}{0}
\setcounter{savededitorc}{0}
\setcounter{foreword}{0}
\setcounter{savedforeword}{0}
\setcounter{holder}{0}
\setcounter{savedholder}{0}
\setcounter{introduction}{0}
\setcounter{savedintroduction}{0}
\setcounter{namea}{0}
\setcounter{savednamea}{0}
\setcounter{nameb}{0}
\setcounter{savednameb}{0}
\setcounter{namec}{0}
\setcounter{savednamec}{0}
\setcounter{translator}{0}
\setcounter{savedtranslator}{0}
\setcounter{shortauthor}{0}
\setcounter{savedshortauthor}{0}
\setcounter{shorteditor}{0}
\setcounter{savedshorteditor}{0}
\setcounter{labelname}{0}
\setcounter{savedlabelname}{0}
\setcounter{institution}{0}
\setcounter{savedinstitution}{0}
\setcounter{lista}{0}
\setcounter{savedlista}{0}
\setcounter{listb}{0}
\setcounter{savedlistb}{0}
\setcounter{listc}{0}
\setcounter{savedlistc}{0}
\setcounter{listd}{0}
\setcounter{savedlistd}{0}
\setcounter{liste}{0}
\setcounter{savedliste}{0}
\setcounter{listf}{0}
\setcounter{savedlistf}{0}
\setcounter{location}{0}
\setcounter{savedlocation}{0}
\setcounter{organization}{0}
\setcounter{savedorganization}{0}
\setcounter{origlocation}{0}
\setcounter{savedoriglocation}{0}
\setcounter{origpublisher}{0}
\setcounter{savedorigpublisher}{0}
\setcounter{publisher}{0}
\setcounter{savedpublisher}{0}
\setcounter{language}{0}
\setcounter{savedlanguage}{0}
\setcounter{pageref}{0}
\setcounter{savedpageref}{0}
\setcounter{textcitecount}{0}
\setcounter{textcitetotal}{0}
\setcounter{textcitemaxnames}{0}
\setcounter{biburlnumpenalty}{0}
\setcounter{biburlucpenalty}{8000}
\setcounter{biburllcpenalty}{7000}
\setcounter{smartand}{1}
\setcounter{bbx:relatedcount}{0}
\setcounter{bbx:relatedtotal}{0}
\setcounter{parentequation}{0}
\setcounter{su@anzahl}{0}
\setcounter{LT@tables}{0}
\setcounter{LT@chunks}{0}
\setcounter{RomanPagenumber}{7}
\setcounter{lstlisting}{2}
\setcounter{section@level}{2}
}
