\relax 
\providecommand\hyper@newdestlabel[2]{}
\@writefile{toc}{\defcounter {refsection}{0}\relax }\@writefile{toc}{\contentsline {chapter}{\numberline {4}Problemstellung und Anforderungen}{15}{chapter.4}}
\@writefile{lof}{\defcounter {refsection}{0}\relax }\@writefile{lof}{\addvspace {10\p@ }}
\@writefile{lot}{\defcounter {refsection}{0}\relax }\@writefile{lot}{\addvspace {10\p@ }}
\@writefile{lol}{\defcounter {refsection}{0}\relax }\@writefile{lol}{\addvspace {10\p@ }}
\@writefile{toc}{\defcounter {refsection}{0}\relax }\@writefile{toc}{\contentsline {section}{\numberline {4.1}Vorgehensweise}{15}{section.4.1}}
\newlabel{sec:wasserfall}{{4.1}{15}{Vorgehensweise}{section.4.1}{}}
\@writefile{toc}{\defcounter {refsection}{0}\relax }\@writefile{toc}{\contentsline {section}{\numberline {4.2}Ist-Zustand}{15}{section.4.2}}
\newlabel{cha:ist}{{4.2}{15}{Ist-Zustand}{section.4.2}{}}
\@writefile{toc}{\defcounter {refsection}{0}\relax }\@writefile{toc}{\contentsline {section}{\numberline {4.3}Anforderungen}{16}{section.4.3}}
\newlabel{sec:anfoderungen}{{4.3}{16}{Anforderungen}{section.4.3}{}}
\@writefile{toc}{\defcounter {refsection}{0}\relax }\@writefile{toc}{\contentsline {subsection}{\numberline {4.3.1}Nutzer}{16}{subsection.4.3.1}}
\newlabel{subsec:anfNutzer}{{4.3.1}{16}{Nutzer}{subsection.4.3.1}{}}
\@writefile{toc}{\defcounter {refsection}{0}\relax }\@writefile{toc}{\contentsline {subsection}{\numberline {4.3.2}Funktionale Anforderugen}{16}{subsection.4.3.2}}
\newlabel{subsec:anfFunk}{{4.3.2}{16}{Funktionale Anforderugen}{subsection.4.3.2}{}}
\@writefile{toc}{\defcounter {refsection}{0}\relax }\@writefile{toc}{\contentsline {subsection}{\numberline {4.3.3}Anforderung an das System}{17}{subsection.4.3.3}}
\newlabel{subsec:anfNutzer}{{4.3.3}{17}{Anforderung an das System}{subsection.4.3.3}{}}
\@writefile{toc}{\defcounter {refsection}{0}\relax }\@writefile{toc}{\contentsline {section}{\numberline {4.4}Architekturentw\IeC {\"u}rfe}{17}{section.4.4}}
\newlabel{sec:arch}{{4.4}{17}{Architekturentwürfe}{section.4.4}{}}
\@writefile{toc}{\defcounter {refsection}{0}\relax }\@writefile{toc}{\contentsline {subsection}{\numberline {4.4.1}Dynamisches Manifest}{17}{subsection.4.4.1}}
\newlabel{subsec:exsc}{{4.4.1}{17}{Dynamisches Manifest}{subsection.4.4.1}{}}
\@writefile{toc}{\defcounter {refsection}{0}\relax }\@writefile{toc}{\contentsline {subsection}{\numberline {4.4.2}Dynamisches Chrome-Extension-Scripte}{18}{subsection.4.4.2}}
\newlabel{subsec:standalone}{{4.4.2}{18}{Dynamisches Chrome-Extension-Scripte}{subsection.4.4.2}{}}
\@writefile{toc}{\defcounter {refsection}{0}\relax }\@writefile{toc}{\contentsline {chapter}{\numberline {5}Chrome-Security-Extension-Framework}{20}{chapter.5}}
\@writefile{lof}{\defcounter {refsection}{0}\relax }\@writefile{lof}{\addvspace {10\p@ }}
\@writefile{lot}{\defcounter {refsection}{0}\relax }\@writefile{lot}{\addvspace {10\p@ }}
\@writefile{lol}{\defcounter {refsection}{0}\relax }\@writefile{lol}{\addvspace {10\p@ }}
\newlabel{cha:csef}{{5}{20}{Chrome-Security-Extension-Framework}{chapter.5}{}}
\@writefile{toc}{\defcounter {refsection}{0}\relax }\@writefile{toc}{\contentsline {section}{\numberline {5.1}Umsetzung der dynamisches Chrome-Extension-Scripte}{20}{section.5.1}}
\newlabel{sec:dyn}{{5.1}{20}{Umsetzung der dynamisches Chrome-Extension-Scripte}{section.5.1}{}}
\@writefile{toc}{\defcounter {refsection}{0}\relax }\@writefile{toc}{\contentsline {subsection}{\numberline {5.1.1}Bootstrap der Modul Background Scripte}{20}{subsection.5.1.1}}
\newlabel{subsec:bg}{{5.1.1}{20}{Bootstrap der Modul Background Scripte}{subsection.5.1.1}{}}
\@writefile{toc}{\defcounter {refsection}{0}\relax }\@writefile{toc}{\contentsline {subsection}{\numberline {5.1.2}Bootstrap der Modul Content Scripte}{21}{subsection.5.1.2}}
\newlabel{subsec:cs}{{5.1.2}{21}{Bootstrap der Modul Content Scripte}{subsection.5.1.2}{}}
\@writefile{toc}{\defcounter {refsection}{0}\relax }\@writefile{toc}{\contentsline {subsection}{\numberline {5.1.3}Bootstrap der Modul Browser Action und Option Page}{21}{subsection.5.1.3}}
\newlabel{subsec:ba}{{5.1.3}{21}{Bootstrap der Modul Browser Action und Option Page}{subsection.5.1.3}{}}
\@writefile{toc}{\defcounter {refsection}{0}\relax }\@writefile{toc}{\contentsline {subsection}{\numberline {5.1.4}Bootstrap der Modul Devtools Pages}{22}{subsection.5.1.4}}
\newlabel{subsec:dp}{{5.1.4}{22}{Bootstrap der Modul Devtools Pages}{subsection.5.1.4}{}}
\newlabel{lst:monkey}{{5.1}{22}{Patch der Funktion chrome.devtools.panels.create, um hardgecodete Argumente zu manipulieren}{lstlisting.5.1}{}}
\@writefile{lol}{\defcounter {refsection}{0}\relax }\@writefile{lol}{\contentsline {lstlisting}{\numberline {5.1}Patch der Funktion chrome.devtools.panels.create, um hardgecodete Argumente zu manipulieren.}{22}{lstlisting.5.1}}
\@writefile{lof}{\defcounter {refsection}{0}\relax }\@writefile{lof}{\contentsline {figure}{\numberline {5.1}{\ignorespaces Vereinfachte grafische Darstellung des Bootstrapings}}{23}{figure.5.1}}
\newlabel{fig:crxarch}{{5.1}{23}{Vereinfachte grafische Darstellung des Bootstrapings}{figure.5.1}{}}
\@writefile{toc}{\defcounter {refsection}{0}\relax }\@writefile{toc}{\contentsline {section}{\numberline {5.2}Vereinfachte Message-Passing-API}{23}{section.5.2}}
\@writefile{toc}{\defcounter {refsection}{0}\relax }\@writefile{toc}{\contentsline {subsection}{\numberline {5.2.1}Benutzerdefinierte Ereignisse}{23}{subsection.5.2.1}}
\newlabel{subsec:emitter}{{5.2.1}{23}{Benutzerdefinierte Ereignisse}{subsection.5.2.1}{}}
\@writefile{toc}{\defcounter {refsection}{0}\relax }\@writefile{toc}{\contentsline {subsection}{\numberline {5.2.2}Message API in der Content Scripte und DevTools Pages}{24}{subsection.5.2.2}}
\newlabel{subsec:api}{{5.2.2}{24}{Message API in der Content Scripte und DevTools Pages}{subsection.5.2.2}{}}
\@writefile{toc}{\defcounter {refsection}{0}\relax }\@writefile{toc}{\contentsline {subsection}{\numberline {5.2.3}Message Dispatcher der Background Page}{24}{subsection.5.2.3}}
\newlabel{subsec:dispatcher}{{5.2.3}{24}{Message Dispatcher der Background Page}{subsection.5.2.3}{}}
\@writefile{toc}{\defcounter {refsection}{0}\relax }\@writefile{toc}{\contentsline {chapter}{\numberline {6}Funktionstests}{25}{chapter.6}}
\@writefile{lof}{\defcounter {refsection}{0}\relax }\@writefile{lof}{\addvspace {10\p@ }}
\@writefile{lot}{\defcounter {refsection}{0}\relax }\@writefile{lot}{\addvspace {10\p@ }}
\@writefile{lol}{\defcounter {refsection}{0}\relax }\@writefile{lol}{\addvspace {10\p@ }}
\newlabel{cha:Test}{{6}{25}{Funktionstests}{chapter.6}{}}
\@writefile{toc}{\defcounter {refsection}{0}\relax }\@writefile{toc}{\contentsline {section}{\numberline {6.1}Beschreibung und Integration der Erweiterungen}{25}{section.6.1}}
\newlabel{sec:moduls}{{6.1}{25}{Beschreibung und Integration der Erweiterungen}{section.6.1}{}}
\@writefile{toc}{\defcounter {refsection}{0}\relax }\@writefile{toc}{\contentsline {subsection}{\numberline {6.1.1}Live HTTP Header}{25}{subsection.6.1.1}}
\newlabel{subsec:lhh}{{6.1.1}{25}{Live HTTP Header}{subsection.6.1.1}{}}
\@writefile{toc}{\defcounter {refsection}{0}\relax }\@writefile{toc}{\contentsline {subsection}{\numberline {6.1.2}Form Finder}{25}{subsection.6.1.2}}
\undonewlabel{acro:CSRF}
\newlabel{acro:CSRF}{{6.1.2}{25}{Form Finder}{section*.19}{}}
\acronymused{CSRF}
\newlabel{ff}{{6.1.2}{25}{Form Finder}{subsection.6.1.2}{}}
\@writefile{toc}{\defcounter {refsection}{0}\relax }\@writefile{toc}{\contentsline {section}{\numberline {6.2}Funktionstest der einzelnen Module}{26}{section.6.2}}
\@writefile{toc}{\defcounter {refsection}{0}\relax }\@writefile{toc}{\contentsline {subsection}{\numberline {6.2.1}Test Live HTTP Header}{26}{subsection.6.2.1}}
\newlabel{subsec:test_1}{{6.2.1}{26}{Test Live HTTP Header}{subsection.6.2.1}{}}
\@writefile{lof}{\defcounter {refsection}{0}\relax }\@writefile{lof}{\contentsline {figure}{\numberline {6.1}{\ignorespaces Unterschiede im Benutzeroberfl\IeC {\"a}che bei Verwendung des Frameworks(1: ohne Framework; 2: mit Framework)}}{27}{figure.6.1}}
\newlabel{fig:lhhcomp}{{6.1}{27}{Unterschiede im Benutzeroberfläche bei Verwendung des Frameworks(1: ohne Framework; 2: mit Framework)}{figure.6.1}{}}
\@writefile{toc}{\defcounter {refsection}{0}\relax }\@writefile{toc}{\contentsline {subsection}{\numberline {6.2.2}Test Form Finder}{28}{subsection.6.2.2}}
\newlabel{subsec:test_2}{{6.2.2}{28}{Test Form Finder}{subsection.6.2.2}{}}
\@writefile{lot}{\defcounter {refsection}{0}\relax }\@writefile{lot}{\contentsline {table}{\numberline {6.1}{\ignorespaces Testergebnisse Form Finder}}{28}{table.6.1}}
\newlabel{tab:test2}{{6.1}{28}{Testergebnisse Form Finder}{table.6.1}{}}
\newlabel{fig:formfindergui}{{6.2.2}{29}{Test Form Finder}{table.6.1}{}}
\@writefile{lof}{\defcounter {refsection}{0}\relax }\@writefile{lof}{\contentsline {figure}{\numberline {6.2}{\ignorespaces Benutzeroberfl\IeC {\"a}che des Form Finders}}{29}{figure.6.2}}
\@setckpt{Inhalt/Umsetzung}{
\setcounter{page}{30}
\setcounter{equation}{0}
\setcounter{enumi}{3}
\setcounter{enumii}{0}
\setcounter{enumiii}{0}
\setcounter{enumiv}{0}
\setcounter{footnote}{0}
\setcounter{mpfootnote}{0}
\setcounter{part}{0}
\setcounter{chapter}{6}
\setcounter{section}{2}
\setcounter{subsection}{2}
\setcounter{subsubsection}{0}
\setcounter{paragraph}{0}
\setcounter{subparagraph}{0}
\setcounter{figure}{2}
\setcounter{table}{1}
\setcounter{lstnumber}{11}
\setcounter{AM@survey}{0}
\setcounter{Item}{10}
\setcounter{Hfootnote}{0}
\setcounter{bookmark@seq@number}{56}
\setcounter{tabx@nest}{0}
\setcounter{listtotal}{0}
\setcounter{listcount}{0}
\setcounter{liststart}{0}
\setcounter{liststop}{0}
\setcounter{citecount}{0}
\setcounter{citetotal}{0}
\setcounter{multicitecount}{0}
\setcounter{multicitetotal}{0}
\setcounter{instcount}{30}
\setcounter{maxnames}{3}
\setcounter{minnames}{1}
\setcounter{maxitems}{3}
\setcounter{minitems}{1}
\setcounter{citecounter}{0}
\setcounter{savedcitecounter}{0}
\setcounter{uniquelist}{0}
\setcounter{uniquename}{0}
\setcounter{refsection}{0}
\setcounter{refsegment}{0}
\setcounter{maxextratitle}{0}
\setcounter{maxextratitleyear}{0}
\setcounter{maxextrayear}{0}
\setcounter{maxextraalpha}{7}
\setcounter{abbrvpenalty}{50}
\setcounter{highnamepenalty}{50}
\setcounter{lownamepenalty}{25}
\setcounter{maxparens}{3}
\setcounter{parenlevel}{0}
\setcounter{mincomprange}{10}
\setcounter{maxcomprange}{100000}
\setcounter{mincompwidth}{1}
\setcounter{afterword}{0}
\setcounter{savedafterword}{0}
\setcounter{annotator}{0}
\setcounter{savedannotator}{0}
\setcounter{author}{0}
\setcounter{savedauthor}{0}
\setcounter{bookauthor}{0}
\setcounter{savedbookauthor}{0}
\setcounter{commentator}{0}
\setcounter{savedcommentator}{0}
\setcounter{editor}{0}
\setcounter{savededitor}{0}
\setcounter{editora}{0}
\setcounter{savededitora}{0}
\setcounter{editorb}{0}
\setcounter{savededitorb}{0}
\setcounter{editorc}{0}
\setcounter{savededitorc}{0}
\setcounter{foreword}{0}
\setcounter{savedforeword}{0}
\setcounter{holder}{0}
\setcounter{savedholder}{0}
\setcounter{introduction}{0}
\setcounter{savedintroduction}{0}
\setcounter{namea}{0}
\setcounter{savednamea}{0}
\setcounter{nameb}{0}
\setcounter{savednameb}{0}
\setcounter{namec}{0}
\setcounter{savednamec}{0}
\setcounter{translator}{0}
\setcounter{savedtranslator}{0}
\setcounter{shortauthor}{0}
\setcounter{savedshortauthor}{0}
\setcounter{shorteditor}{0}
\setcounter{savedshorteditor}{0}
\setcounter{labelname}{0}
\setcounter{savedlabelname}{0}
\setcounter{institution}{0}
\setcounter{savedinstitution}{0}
\setcounter{lista}{0}
\setcounter{savedlista}{0}
\setcounter{listb}{0}
\setcounter{savedlistb}{0}
\setcounter{listc}{0}
\setcounter{savedlistc}{0}
\setcounter{listd}{0}
\setcounter{savedlistd}{0}
\setcounter{liste}{0}
\setcounter{savedliste}{0}
\setcounter{listf}{0}
\setcounter{savedlistf}{0}
\setcounter{location}{0}
\setcounter{savedlocation}{0}
\setcounter{organization}{0}
\setcounter{savedorganization}{0}
\setcounter{origlocation}{0}
\setcounter{savedoriglocation}{0}
\setcounter{origpublisher}{0}
\setcounter{savedorigpublisher}{0}
\setcounter{publisher}{0}
\setcounter{savedpublisher}{0}
\setcounter{language}{0}
\setcounter{savedlanguage}{0}
\setcounter{pageref}{0}
\setcounter{savedpageref}{0}
\setcounter{textcitecount}{0}
\setcounter{textcitetotal}{0}
\setcounter{textcitemaxnames}{0}
\setcounter{biburlnumpenalty}{0}
\setcounter{biburlucpenalty}{8000}
\setcounter{biburllcpenalty}{7000}
\setcounter{smartand}{1}
\setcounter{bbx:relatedcount}{0}
\setcounter{bbx:relatedtotal}{0}
\setcounter{parentequation}{0}
\setcounter{su@anzahl}{0}
\setcounter{LT@tables}{0}
\setcounter{LT@chunks}{0}
\setcounter{RomanPagenumber}{7}
\setcounter{lstlisting}{0}
\setcounter{section@level}{2}
}
